WeatherDataService Started : 27-Aug-2018 07:04:08(UTC) 
WeatherDataService Started : 27-Aug-2018 07:08:17(UTC) 
WeatherDataService Started : 27-Aug-2018 07:08:44(UTC) 
WeatherDataService Started : 27-Aug-2018 07:09:10(UTC) 
WeatherDataService Started : 27-Aug-2018 07:09:39(UTC) 
WeatherDataService Started : 27-Aug-2018 07:10:33(UTC) 
WeatherDataService Started : 27-Aug-2018 07:16:42(UTC) 
WeatherDataService Started : 27-Aug-2018 07:18:10(UTC) 
WeatherDataService Started : 27-Aug-2018 07:24:13(UTC) 
WeatherDataService Started : 27-Aug-2018 07:25:32(UTC) 
WeatherDataService Started : 27-Aug-2018 07:26:59(UTC) 
WeatherDataService Started : 27-Aug-2018 07:27:33(UTC) 
WeatherDataService Started : 27-Aug-2018 07:27:54(UTC) 
WeatherDataService Started : 27-Aug-2018 07:29:32(UTC) 
WeatherDataService Started : 27-Aug-2018 07:37:15(UTC) 
WeatherDataService Started : 27-Aug-2018 07:39:06(UTC) 
WeatherDataService Started : 27-Aug-2018 08:19:20(UTC) 
WeatherDataService Started : 27-Aug-2018 08:20:43(UTC) 
WeatherDataService Ended : 27-Aug-2018 08:23:32(UTC) 
----------------------------------------------------------
WeatherDataService Started : 27-Aug-2018 08:26:29(UTC) 
WeatherDataService Ended : 27-Aug-2018 08:31:29(UTC) 
----------------------------------------------------------
WeatherDataService Started : 27-Aug-2018 08:32:11(UTC) 
WeatherDataService Ended : 27-Aug-2018 08:39:13(UTC) 
----------------------------------------------------------
WeatherDataService Started : 27-Aug-2018 08:41:12(UTC) 
WeatherDataService Started : 27-Aug-2018 10:59:10(UTC) 
WeatherDataService Ended : 28-Aug-2018 02:54:45(UTC) 
----------------------------------------------------------
WeatherDataService Started : 28-Aug-2018 02:54:51(UTC) 
WeatherDataService Started : 28-Aug-2018 05:10:51(UTC) 
